﻿<?xml version="1.0" encoding="utf-8"?>
<svg version="1.1" xmlns:xlink="http://www.w3.org/1999/xlink" width="20px" height="19px" xmlns="http://www.w3.org/2000/svg">
  <g transform="matrix(1 0 0 1 -679 -259 )">
    <path d="M 18.5714285714286 1.5812743823147  L 18.5714285714286 6.32509752925878  C 18.9657738095238 6.32509752925878  19.3024553571429 6.4795188556567  19.5814732142857 6.78836150845254  C 19.8604910714286 7.09720416124837  20 7.46987429562202  20 7.90637191157347  C 20 8.34286952752492  19.8604910714286 8.71553966189857  19.5814732142857 9.02438231469441  C 19.3024553571429 9.33322496749025  18.9657738095238 9.48764629388817  18.5714285714286 9.48764629388817  L 18.5714285714286 14.2314694408322  C 18.5714285714286 14.6597312527091  18.4300595238095 15.0303424360642  18.1473214285714 15.3433029908973  C 17.8645833333333 15.6562635457304  17.5297619047619 15.8127438231469  17.1428571428571 15.8127438231469  C 14.0401785714286 12.9549198092761  11.0193452380952 11.3901170351105  8.08035714285714 11.1183355006502  C 7.64880952380952 11.2748157780668  7.31026785714286 11.5465973125271  7.06473214285714 11.9336801040312  C 6.81919642857143 12.3207628955353  6.70386904761905 12.7346120502817  6.71875 13.1752275682705  C 6.73363095238095 13.6158430862592  6.88244047619048 13.9967490247074  7.16517857142857 14.3179453836151  C 7.01636904761905 14.5897269180754  6.93080357142857 14.8594495015171  6.90848214285714 15.1271131339402  C 6.88616071428571 15.3947767663632  6.90848214285714 15.6336150845254  6.97544642857143 15.8436280884265  C 7.04241071428571 16.0536410923277  7.16703869047619 16.280125704378  7.34933035714286 16.5230819245774  C 7.53162202380952 16.7660381447768  7.71019345238095 16.9719332466407  7.88504464285714 17.1407672301691  C 8.05989583333333 17.3096012136974  8.28869047619048 17.51755526658  8.57142857142857 17.7646293888166  C 8.35565476190476 18.2423060251409  7.94084821428571 18.5840918942349  7.32700892857143 18.7899869960988  C 6.71316964285714 18.9958820979627  6.08630952380952 19.0432379713914  5.44642857142857 18.9320546163849  C 4.80654761904762 18.8208712613784  4.31547619047619 18.5923276983095  3.97321428571429 18.2464239271782  C 3.92113095238095 18.0570004334634  3.81138392857143 17.6966840052016  3.64397321428571 17.1654746423927  C 3.4765625 16.6342652795839  3.35751488095238 16.2451235370611  3.28683035714286 15.9980494148244  C 3.21614583333333 15.7509752925878  3.13058035714286 15.38448201127  3.03013392857143 14.8985695708713  C 2.9296875 14.4126571304725  2.87388392857143 13.9967490247074  2.86272321428571 13.6508452535761  C 2.8515625 13.3049414824447  2.86458333333333 12.8993281317729  2.90178571428571 12.4340052015605  C 2.9389880952381 11.9686822713481  3.02083333333333 11.5136540962289  3.14732142857143 11.0689206762029  L 1.78571428571429 11.0689206762029  C 1.29464285714286 11.0689206762029  0.874255952380952 10.8753792804508  0.524553571428571 10.4882964889467  C 0.17485119047619 10.1012136974426  0 9.63589076723017  0 9.09232769830949  L 0 6.72041612483745  C 0 6.17685305591678  0.17485119047619 5.71153012570438  0.524553571428571 5.32444733420026  C 0.874255952380952 4.93736454269614  1.29464285714286 4.74382314694408  1.78571428571429 4.74382314694408  L 7.14285714285714 4.74382314694408  C 10.3794642857143 4.74382314694408  13.7127976190476 3.16254876462939  17.1428571428571 0  C 17.5297619047619 0  17.8645833333333 0.156480277416556  18.1473214285714 0.469440832249675  C 18.4300595238095 0.78240138708279  18.5714285714286 1.1530125704378  18.5714285714286 1.5812743823147  Z M 8.57142857142857 9.574122236671  C 11.3764880952381 9.92002600780234  14.233630952381 11.3242306025141  17 13.7867360208062  L 17 2.00130039011703  C 14.2113095238095 4.48851322063286  11.3541666666667 5.90095361941916  8.57142857142857 6.23862158647594  L 8.57142857142857 9.574122236671  Z " fill-rule="nonzero" fill="#ffffff" stroke="none" fill-opacity="0.996078431372549" transform="matrix(1 0 0 1 679 259 )" />
  </g>
</svg>